Pooled amplicon example-standard DADA2 workflow
…
#Let's also load metadata file-consistent with demulticoder analysis
metadata_path <- file.path("standard_workflow/combined_data/metadata.csv")
metadata <- read_csv(metadata_path)
#> Rows: 173 Columns: 9
#> ── Column specification ────────────────────────────────────────────────────────
#> Delimiter: ","
#> chr (4): sample_name, well, organism, sample_type
#> dbl (3): plate, path_conc, experiment
#> lgl (2): flooded, is_ambiguous
#> 
#> ℹ Use `spec()` to retrieve the full column specification for this data.
#> ℹ Specify the column types or set `show_col_types = FALSE` to quiet this message.
print(metadata)
#> # A tibble: 173 × 9
#>    sample_name plate well  organism flooded path_conc experiment sample_type
#>    <chr>       <dbl> <chr> <chr>    <lgl>       <dbl>      <dbl> <chr>      
#>  1 S1              1 A01   Cry      TRUE          100          1 Sample     
#>  2 S10             1 B02   Cry      TRUE            1          1 Sample     
#>  3 S100            2 B02   Cin      TRUE            1          2 Sample     
#>  4 S101            2 C02   Plu      FALSE           1          2 Sample     
#>  5 S102            2 D02   Cry      TRUE            1          2 Sample     
#>  6 S103            2 F02   Cin      FALSE           1          2 Sample     
#>  7 S104            2 G02   Plu      FALSE           1          2 Sample     
#>  8 S105            2 H02   Cry      TRUE          100          2 Sample     
#>  9 S106            2 A03   Plu      FALSE         100          2 Sample     
#> 10 S107            2 B03   Cin      TRUE          100          2 Sample     
#> # ℹ 163 more rows
#> # ℹ 1 more variable: is_ambiguous <lgl>
…
# For diversity calculations, we'll use proportions of read depth
# We'll set any proportion to 0 that is less than the inverse of the read count of the non-control sample with the fewest reads.
# This should account for unequal sample read depth without the randomness of rarefaction.

metadata$raw_count <- colSums(obj$data$abund[, metadata$sample_name])
lowest_count <- min(metadata$raw_count[! is.na(metadata$organism)])
lowest_count
#> [1] 12661
obj$data$prop <- calc_obs_props(obj, data = 'abund', cols = metadata$sample_name)
#> Calculating proportions from counts for 162 columns for 2697 observations.
obj$data$prop <- zero_low_counts(obj, data = 'prop', min_count = 1 / lowest_count, cols = metadata$sample_name)
#> Zeroing 2180 of 436914 counts less than 7.89827027880894e-05.
obj$data$prop
#> # A tibble: 2,697 × 163
#>    taxon_id       S1     S10     S100     S101  S102     S103     S104     S105
#>    <chr>       <dbl>   <dbl>    <dbl>    <dbl> <dbl>    <dbl>    <dbl>    <dbl>
#>  1 bfz      0        0       0        0            0 0        0        0       
#>  2 bga      0        0       0        0            0 0        0        0       
#>  3 bgb      0        0       0        0            0 0        0        0       
#>  4 bgc      0        0       0        0            0 0        0        0       
#>  5 bgc      0        0       0        0            0 0        0.00687  0       
#>  6 bgd      0        0       0        0.000587     0 0        0        0.000555
#>  7 bge      0.000370 0.00128 0.000180 0.000681     0 0        0        0       
#>  8 bgd      0        0       0        0            0 0.000911 0.000634 0       
#>  9 bgf      0        0       0        0            0 0        0        0       
#> 10 bgf      0        0       0        0            0 0        0        0       
#> # ℹ 2,687 more rows
#> # ℹ 154 more variables: S106 <dbl>, S107 <dbl>, S108 <dbl>, S109 <dbl>,
#> #   S11 <dbl>, S110 <dbl>, S111 <dbl>, S112 <dbl>, S113 <dbl>, S114 <dbl>,
#> #   S115 <dbl>, S116 <dbl>, S117 <dbl>, S118 <dbl>, S119 <dbl>, S12 <dbl>,
#> #   S120 <dbl>, S121 <dbl>, S122 <dbl>, S123 <dbl>, S124 <dbl>, S125 <dbl>,
#> #   S126 <dbl>, S127 <dbl>, S128 <dbl>, S129 <dbl>, S13 <dbl>, S130 <dbl>,
#> #   S131 <dbl>, S132 <dbl>, S133 <dbl>, S134 <dbl>, S135 <dbl>, S136 <dbl>, …

obj$data$prop[metadata$sample_name] <- map(metadata$sample_name, function(id) {
  out <- obj$data$prop[[id]]
  out[is.na(out) | is.nan(out)] <- 0
  out
})

obj$data$prop
#> # A tibble: 2,697 × 163
#>    taxon_id       S1     S10     S100     S101  S102     S103     S104     S105
#>    <chr>       <dbl>   <dbl>    <dbl>    <dbl> <dbl>    <dbl>    <dbl>    <dbl>
#>  1 bfz      0        0       0        0            0 0        0        0       
#>  2 bga      0        0       0        0            0 0        0        0       
#>  3 bgb      0        0       0        0            0 0        0        0       
#>  4 bgc      0        0       0        0            0 0        0        0       
#>  5 bgc      0        0       0        0            0 0        0.00687  0       
#>  6 bgd      0        0       0        0.000587     0 0        0        0.000555
#>  7 bge      0.000370 0.00128 0.000180 0.000681     0 0        0        0       
#>  8 bgd      0        0       0        0            0 0.000911 0.000634 0       
#>  9 bgf      0        0       0        0            0 0        0        0       
#> 10 bgf      0        0       0        0            0 0        0        0       
#> # ℹ 2,687 more rows
#> # ℹ 154 more variables: S106 <dbl>, S107 <dbl>, S108 <dbl>, S109 <dbl>,
#> #   S11 <dbl>, S110 <dbl>, S111 <dbl>, S112 <dbl>, S113 <dbl>, S114 <dbl>,
#> #   S115 <dbl>, S116 <dbl>, S117 <dbl>, S118 <dbl>, S119 <dbl>, S12 <dbl>,
#> #   S120 <dbl>, S121 <dbl>, S122 <dbl>, S123 <dbl>, S124 <dbl>, S125 <dbl>,
#> #   S126 <dbl>, S127 <dbl>, S128 <dbl>, S129 <dbl>, S13 <dbl>, S130 <dbl>,
#> #   S131 <dbl>, S132 <dbl>, S133 <dbl>, S134 <dbl>, S135 <dbl>, S136 <dbl>, …
…
abundance$is_low_abund <- rowSums(abundance[, metadata$sample_name]) < 5
obj2 <- parse_tax_data(abundance, class_cols = 'dada2_tax', class_sep = ';',
                      class_regex = '^(.+)--(.+)--(.+)$',
                      class_key = c(taxon = 'taxon_name', boot = 'info', rank = 'taxon_rank'))
names(obj2$data) <- c('abund', 'score')
obj2 <- transmute_obs(obj2, 'score', sequence = sequence[input_index], boot = boot, rank = rank)
print(obj2)
#> <Taxmap>
#>   1574 taxa: aab. Eukaryota, aac. Fungi ... cio. NA
#>   1574 edges: NA->aab, aab->aac, aab->aad ... cim->cin, cin->cio
#>   2 data sets:
#>     abund:
#>       # A tibble: 2,697 × 180
#>         taxon_id sequence   dada2_tax is_inoculum inoculum    S1   S10
#>         <chr>    <chr>      <chr>     <lgl>       <chr>    <int> <int>
#>       1 bfz      AAAAAGTCG… Eukaryot… FALSE       <NA>         0     0
#>       2 bga      AAAAAGTCG… Eukaryot… FALSE       <NA>         0     0
#>       3 bgb      AAAAAGTCG… Eukaryot… FALSE       <NA>         0     0
#>       # ℹ 2,694 more rows
#>       # ℹ 173 more variables: S100 <int>, S101 <int>, S102 <int>,
#>       #   S103 <int>, S104 <int>, S105 <int>, S106 <int>, S107 <int>,
#>       #   S108 <int>, S109 <int>, …
#>     score:
#>       # A tibble: 23,356 × 4
#>         taxon_id sequence                                  boot  rank 
#>         <chr>    <chr>                                     <chr> <chr>
#>       1 aab      AAAAAGTCGTAACAAGGTAACCGTAGGTGAACCTGCGGTT… 100   Doma…
#>       2 aac      AAAAAGTCGTAACAAGGTAACCGTAGGTGAACCTGCGGTT… 100   King…
#>       3 aae      AAAAAGTCGTAACAAGGTAACCGTAGGTGAACCTGCGGTT… 100   Phyl…
#>       # ℹ 23,353 more rows
…
# Calculate the relative standard deviation for each taxon as a measure of how consistently it was found.
rsd <- function(x, na.rm = FALSE) {sd(x, na.rm = na.rm) / mean(x, na.rm = na.rm)}
obj_subset$data$tax_data$rel_stand_dev <- map_dbl(1:nrow(obj_subset$data$tax_abund), function(i) {
  rsd(unlist(obj_subset$data$tax_abund[i, metadata$sample_name]), na.rm = TRUE)
})
obj_subset
#> <Taxmap>
#>   1127 taxa: aab. Eukaryota ... cio. NA
#>   1127 edges: NA->aab, aab->aac, aab->aad ... cim->cin, cin->cio
#>   6 data sets:
#>     abund:
#>       # A tibble: 2,697 × 180
#>         taxon_id sequence   dada2_tax is_inoculum inoculum    S1   S10
#>         <chr>    <chr>      <chr>     <lgl>       <chr>    <int> <int>
#>       1 bfz      AAAAAGTCG… Eukaryot… FALSE       <NA>         0     0
#>       2 bga      AAAAAGTCG… Eukaryot… FALSE       <NA>         0     0
#>       3 bgb      AAAAAGTCG… Eukaryot… FALSE       <NA>         0     0
#>       # ℹ 2,694 more rows
#>       # ℹ 173 more variables: S100 <int>, S101 <int>, S102 <int>,
#>       #   S103 <int>, S104 <int>, S105 <int>, S106 <int>, S107 <int>,
#>       #   S108 <int>, S109 <int>, …
#>     score:
#>       # A tibble: 22,082 × 4
#>         taxon_id sequence                                   boot rank 
#>         <chr>    <chr>                                     <dbl> <chr>
#>       1 aab      AAAAAGTCGTAACAAGGTAACCGTAGGTGAACCTGCGGTT…   100 Doma…
#>       2 aac      AAAAAGTCGTAACAAGGTAACCGTAGGTGAACCTGCGGTT…   100 King…
#>       3 aae      AAAAAGTCGTAACAAGGTAACCGTAGGTGAACCTGCGGTT…   100 Phyl…
#>       # ℹ 22,079 more rows
#>     tax_abund:
#>       # A tibble: 1,127 × 163
#>         taxon_id    S1   S10  S100  S101  S102  S103  S104  S105  S106
#>         <chr>    <dbl> <dbl> <dbl> <dbl> <dbl> <dbl> <dbl> <dbl> <dbl>
#>       1 aab      56792 35094 50052 42596 85519 70268 52090 54075 51693
#>       2 aac      27698 12210 11111 13034 18437 19077 10116 11106 12154
#>       3 aad      29094 22884 38941 29562 67082 51191 41974 42969 39539
#>       # ℹ 1,124 more rows
#>       # ℹ 153 more variables: S107 <dbl>, S108 <dbl>, S109 <dbl>,
#>       #   S11 <dbl>, S110 <dbl>, S111 <dbl>, S112 <dbl>, S113 <dbl>,
#>       #   S114 <dbl>, S115 <dbl>, …
#>     tax_prop:
#>       # A tibble: 1,127 × 163
#>         taxon_id    S1   S10  S100  S101  S102  S103  S104  S105  S106
#>         <chr>    <dbl> <dbl> <dbl> <dbl> <dbl> <dbl> <dbl> <dbl> <dbl>
#>       1 aab      1     1     1     1     1     1     1     1     1    
#>       2 aac      0.488 0.348 0.222 0.306 0.216 0.271 0.194 0.205 0.235
#>       3 aad      0.512 0.652 0.778 0.694 0.784 0.729 0.806 0.795 0.765
#>       # ℹ 1,124 more rows
#>       # ℹ 153 more variables: S107 <dbl>, S108 <dbl>, S109 <dbl>,
#>       #   S11 <dbl>, S110 <dbl>, S111 <dbl>, S112 <dbl>, S113 <dbl>,
#>       #   S114 <dbl>, S115 <dbl>, …
#>     asv_prop:
#>       # A tibble: 2,697 × 163
#>         taxon_id    S1   S10  S100  S101  S102  S103  S104  S105  S106
#>         <chr>    <dbl> <dbl> <dbl> <dbl> <dbl> <dbl> <dbl> <dbl> <dbl>
#>       1 bfz          0     0     0     0     0     0     0     0     0
#>       2 bga          0     0     0     0     0     0     0     0     0
#>       3 bgb          0     0     0     0     0     0     0     0     0
#>       # ℹ 2,694 more rows
#>       # ℹ 153 more variables: S107 <dbl>, S108 <dbl>, S109 <dbl>,
#>       #   S11 <dbl>, S110 <dbl>, S111 <dbl>, S112 <dbl>, S113 <dbl>,
#>       #   S114 <dbl>, S115 <dbl>, …
#>     tax_data:
#>       # A tibble: 1,127 × 4
#>         taxon_id n_samples mean_prop rel_stand_dev
#>         <chr>        <int>     <dbl>         <dbl>
#>       1 aab            162     1             0.444
#>       2 aac            162     0.416         0.652
#>       3 aad            162     0.584         0.711
#>       # ℹ 1,124 more rows
…
